<?xml version="1.0" encoding="UTF-8" standalone="no"?>
<!-- Created with Inkscape (http://www.inkscape.org/) -->

<svg
   xmlns:dc="http://purl.org/dc/elements/1.1/"
   xmlns:cc="http://creativecommons.org/ns#"
   xmlns:rdf="http://www.w3.org/1999/02/22-rdf-syntax-ns#"
   xmlns:svg="http://www.w3.org/2000/svg"
   xmlns="http://www.w3.org/2000/svg"
   xmlns:xlink="http://www.w3.org/1999/xlink"
   xmlns:sodipodi="http://sodipodi.sourceforge.net/DTD/sodipodi-0.dtd"
   xmlns:inkscape="http://www.inkscape.org/namespaces/inkscape"
   width="210mm"
   height="297mm"
   viewBox="0 0 210 297"
   version="1.1"
   id="svg8"
   inkscape:version="0.92.1 unknown"
   sodipodi:docname="inkscapeicons.svg">
  <defs
     id="defs2">
    <linearGradient
       inkscape:collect="always"
       id="linearGradient53734">
      <stop
         style="stop-color:#ffff00;stop-opacity:1;"
         offset="0"
         id="stop53730" />
      <stop
         style="stop-color:#ffff00;stop-opacity:0;"
         offset="1"
         id="stop53732" />
    </linearGradient>
    <linearGradient
       inkscape:collect="always"
       id="linearGradient41603">
      <stop
         style="stop-color:#ffff00;stop-opacity:1;"
         offset="0"
         id="stop41599" />
      <stop
         style="stop-color:#ffff00;stop-opacity:0;"
         offset="1"
         id="stop41601" />
    </linearGradient>
    <marker
       inkscape:stockid="Arrow2Mend"
       orient="auto"
       refY="0.0"
       refX="0.0"
       id="Arrow2Mend"
       style="overflow:visible;"
       inkscape:isstock="true">
      <path
         id="path4536"
         style="fill-rule:evenodd;stroke-width:0.625;stroke-linejoin:round;stroke:#000000;stroke-opacity:1;fill:#ffff00;fill-opacity:1"
         d="M 8.7185878,4.0337352 L -2.2072895,0.016013256 L 8.7185884,-4.0017078 C 6.9730900,-1.6296469 6.9831476,1.6157441 8.7185878,4.0337352 z "
         transform="scale(0.6) rotate(180) translate(0,0)" />
    </marker>
    <linearGradient
       inkscape:collect="always"
       id="linearGradient4547">
      <stop
         style="stop-color:#161616;stop-opacity:1"
         offset="0"
         id="stop4543" />
      <stop
         style="stop-color:#d7d500;stop-opacity:0.88235295"
         offset="1"
         id="stop4545" />
    </linearGradient>
    <linearGradient
       inkscape:collect="always"
       id="linearGradient4494">
      <stop
         style="stop-color:#ff0000;stop-opacity:1"
         offset="0"
         id="stop4490" />
      <stop
         style="stop-color:#000000;stop-opacity:1"
         offset="1"
         id="stop4492" />
    </linearGradient>
    <linearGradient
       inkscape:collect="always"
       xlink:href="#linearGradient4494"
       id="linearGradient4502"
       x1="90.714279"
       y1="188.89882"
       x2="55.940475"
       y2="231.61012"
       gradientUnits="userSpaceOnUse"
       gradientTransform="matrix(0.45018657,-0.23262568,0.18989794,0.36749812,29.972385,157.76999)" />
    <linearGradient
       inkscape:collect="always"
       xlink:href="#linearGradient4547"
       id="linearGradient4549"
       x1="326.35388"
       y1="140.34525"
       x2="282.53299"
       y2="83.648804"
       gradientUnits="userSpaceOnUse" />
    <marker
       inkscape:stockid="Arrow2Mend"
       orient="auto"
       refY="0"
       refX="0"
       id="Arrow2Mend-3"
       style="overflow:visible"
       inkscape:isstock="true">
      <path
         inkscape:connector-curvature="0"
         id="path4536-6"
         style="fill:#ffff00;fill-opacity:1;fill-rule:evenodd;stroke:#000000;stroke-width:0.625;stroke-linejoin:round;stroke-opacity:1"
         d="M 8.7185878,4.0337352 -2.2072895,0.01601326 8.7185884,-4.0017078 c -1.7454984,2.3720609 -1.7354408,5.6174519 -6e-7,8.035443 z"
         transform="scale(-0.6)" />
    </marker>
    <marker
       inkscape:stockid="Arrow2Mend"
       orient="auto"
       refY="0"
       refX="0"
       id="Arrow2Mend-3-5"
       style="overflow:visible"
       inkscape:isstock="true">
      <path
         inkscape:connector-curvature="0"
         id="path4536-6-3"
         style="fill:#ffff00;fill-opacity:1;fill-rule:evenodd;stroke:#000000;stroke-width:0.625;stroke-linejoin:round;stroke-opacity:1"
         d="M 8.7185878,4.0337352 -2.2072895,0.01601326 8.7185884,-4.0017078 c -1.7454984,2.3720609 -1.7354408,5.6174519 -6e-7,8.035443 z"
         transform="scale(-0.6)" />
    </marker>
    <marker
       inkscape:stockid="Arrow2Mend"
       orient="auto"
       refY="0"
       refX="0"
       id="Arrow2Mend-3-5-6"
       style="overflow:visible"
       inkscape:isstock="true">
      <path
         inkscape:connector-curvature="0"
         id="path4536-6-3-2"
         style="fill:#ffff00;fill-opacity:1;fill-rule:evenodd;stroke:#000000;stroke-width:0.625;stroke-linejoin:round;stroke-opacity:1"
         d="M 8.7185878,4.0337352 -2.2072895,0.01601326 8.7185884,-4.0017078 c -1.7454984,2.3720609 -1.7354408,5.6174519 -6e-7,8.035443 z"
         transform="scale(-0.6)" />
    </marker>
    <marker
       inkscape:stockid="Arrow2Mend"
       orient="auto"
       refY="0"
       refX="0"
       id="Arrow2Mend-3-9"
       style="overflow:visible"
       inkscape:isstock="true">
      <path
         inkscape:connector-curvature="0"
         id="path4536-6-1"
         style="fill:#ffff00;fill-opacity:1;fill-rule:evenodd;stroke:#000000;stroke-width:0.625;stroke-linejoin:round;stroke-opacity:1"
         d="M 8.7185878,4.0337352 -2.2072895,0.01601326 8.7185884,-4.0017078 c -1.7454984,2.3720609 -1.7354408,5.6174519 -6e-7,8.035443 z"
         transform="scale(-0.6)" />
    </marker>
    <linearGradient
       inkscape:collect="always"
       xlink:href="#linearGradient41603"
       id="linearGradient41605"
       x1="67.46875"
       y1="-2.9241073"
       x2="67.287415"
       y2="30.337797"
       gradientUnits="userSpaceOnUse"
       gradientTransform="matrix(1.0206719,0,0,1,-1.3927497,1.3229167)" />
    <radialGradient
       inkscape:collect="always"
       xlink:href="#linearGradient53734"
       id="radialGradient53736"
       cx="165.30621"
       cy="25.788246"
       fx="165.30621"
       fy="25.788246"
       r="15.565171"
       gradientTransform="matrix(1.9249889,-0.02913448,0.02781435,1.8860301,-154.28851,-17.568296)"
       gradientUnits="userSpaceOnUse" />
  </defs>
  <sodipodi:namedview
     id="base"
     pagecolor="#ffffff"
     bordercolor="#666666"
     borderopacity="1.0"
     inkscape:pageopacity="0.0"
     inkscape:pageshadow="2"
     inkscape:zoom="0.49497475"
     inkscape:cx="666.35702"
     inkscape:cy="1357.8529"
     inkscape:document-units="mm"
     inkscape:current-layer="layer1"
     showgrid="false"
     inkscape:window-width="1920"
     inkscape:window-height="1012"
     inkscape:window-x="0"
     inkscape:window-y="36"
     inkscape:window-maximized="1" />
  <metadata
     id="metadata5">
    <rdf:RDF>
      <cc:Work
         rdf:about="">
        <dc:format>image/svg+xml</dc:format>
        <dc:type
           rdf:resource="http://purl.org/dc/dcmitype/StillImage" />
        <dc:title />
      </cc:Work>
    </rdf:RDF>
  </metadata>
  <g
     inkscape:label="Layer 1"
     inkscape:groupmode="layer"
     id="layer1">
    <circle
       cy="26.253"
       cx="164.64136"
       id="ellipse53728"
       style="opacity:1;fill:url(#radialGradient53736);fill-opacity:1;stroke:none;stroke-width:1.87114501;stroke-linejoin:miter;stroke-miterlimit:4;stroke-dasharray:none"
       r="25" />
    <ellipse
       style="opacity:1;fill:url(#linearGradient41605);fill-opacity:1;stroke:none;stroke-width:1.01028299;stroke-linejoin:miter;stroke-miterlimit:4;stroke-dasharray:none"
       id="path41587"
       ry="31.183033"
       rx="37.325146"
       cy="29.581842"
       cx="67.37426" />
    <path
       style="opacity:1;fill:url(#linearGradient4502);fill-opacity:1;stroke:#000000;stroke-width:3;stroke-linejoin:miter;stroke-miterlimit:4;stroke-dasharray:none"
       d="m 69.562567,191.82934 c 8.376437,-11.40815 19.452811,-11.95074 29.401255,-8.33131 5.992328,-13.46534 12.911228,-19.47738 25.249128,-16.91637 13.70927,3.12804 15.6947,45.26931 1.94365,47.57027 -13.75107,2.30094 -11.3229,2.26476 -20.00708,10.51428 -8.684182,8.24953 -45.020437,-18.38713 -36.586953,-32.83687 z"
       id="rect4487"
       inkscape:connector-curvature="0"
       sodipodi:nodetypes="ccczzc"
       inkscape:export-xdpi="200"
       inkscape:export-ydpi="200" />
    <path
       style="fill:none;fill-rule:evenodd;stroke:#000000;stroke-width:1.83136177;stroke-linecap:butt;stroke-linejoin:miter;stroke-miterlimit:4;stroke-dasharray:none;stroke-opacity:1"
       d="m 98.668675,184.17852 c 0,0 -4.126994,-5.87458 -4.873434,-9.36012 -0.707668,-3.30436 0.584664,-6.72466 0.584664,-6.72466"
       id="path4504"
       inkscape:connector-curvature="0"
       sodipodi:nodetypes="csc"
       inkscape:export-xdpi="200"
       inkscape:export-ydpi="200" />
    <path
       style="fill:none;fill-rule:evenodd;stroke:#000000;stroke-width:5;stroke-linecap:butt;stroke-linejoin:miter;stroke-miterlimit:4;stroke-dasharray:none;stroke-opacity:1"
       d="m 73.204987,133.27449 0,44.46497"
       id="path4506"
       inkscape:connector-curvature="0"
       inkscape:export-xdpi="200"
       inkscape:export-ydpi="200"
       sodipodi:nodetypes="cc" />
    <path
       style="fill:none;fill-rule:evenodd;stroke:#000000;stroke-width:5;stroke-linecap:butt;stroke-linejoin:miter;stroke-miterlimit:4;stroke-dasharray:none;stroke-opacity:1"
       d="m 86.033923,119.91101 0,37.74198"
       id="path4508"
       inkscape:connector-curvature="0"
       inkscape:export-xdpi="200"
       inkscape:export-ydpi="200"
       sodipodi:nodetypes="cc" />
    <path
       style="fill:none;fill-rule:evenodd;stroke:#000000;stroke-width:5;stroke-linecap:butt;stroke-linejoin:miter;stroke-opacity:1;stroke-miterlimit:4;stroke-dasharray:none"
       d="m 97.259244,127.39456 v 21.9161"
       id="path4510"
       inkscape:connector-curvature="0"
       inkscape:export-xdpi="200"
       inkscape:export-ydpi="200" />
    <path
       style="fill:none;fill-rule:evenodd;stroke:#000000;stroke-width:5;stroke-linecap:butt;stroke-linejoin:miter;stroke-opacity:1;stroke-miterlimit:4;stroke-dasharray:none"
       d="m 113.29541,111.89293 v 44.36674"
       id="path4512"
       inkscape:connector-curvature="0"
       inkscape:export-xdpi="200"
       inkscape:export-ydpi="200" />
    <rect
       style="opacity:1;fill:url(#linearGradient4549);fill-opacity:1;stroke:#000000;stroke-width:2;stroke-linejoin:miter;stroke-miterlimit:4;stroke-dasharray:none"
       id="rect4533"
       width="146.19096"
       height="146.19096"
       x="242.30927"
       y="61.202137"
       ry="2.9426585e-07" />
    <path
       style="fill:#ffff00;fill-rule:evenodd;stroke:#000000;stroke-width:0.72110969;stroke-linecap:butt;stroke-linejoin:miter;stroke-miterlimit:4;stroke-dasharray:none;stroke-opacity:1;marker-end:url(#Arrow2Mend)"
       d="M 68.003289,-1.8550291 V 14.178691"
       id="path4507"
       inkscape:connector-curvature="0"
       sodipodi:nodetypes="cc"
       inkscape:export-xdpi="200"
       inkscape:export-ydpi="200" />
    <path
       style="fill:#ffff00;fill-rule:evenodd;stroke:#000000;stroke-width:0.72110969;stroke-linecap:butt;stroke-linejoin:miter;stroke-miterlimit:4;stroke-dasharray:none;stroke-opacity:1;marker-end:url(#Arrow2Mend-3)"
       d="M 88.292433,4.4510005 79.976957,16.704958"
       id="path4507-7"
       inkscape:connector-curvature="0"
       sodipodi:nodetypes="cc"
       inkscape:export-xdpi="200"
       inkscape:export-ydpi="200" />
    <path
       style="fill:none;fill-rule:evenodd;stroke:#000000;stroke-width:1;stroke-linecap:butt;stroke-linejoin:miter;stroke-miterlimit:4;stroke-dasharray:none;stroke-opacity:1"
       d="M 30.476874,24.723507 C 32.877374,18.727939 35.791065,13.141675 39.929568,9.115292 58.508539,-8.9603356 91.533674,-5.8368856 105.59455,24.790327"
       id="path6396"
       inkscape:connector-curvature="0"
       sodipodi:nodetypes="csc"
       inkscape:export-xdpi="200"
       inkscape:export-ydpi="200" />
    <path
       style="fill:#ffff00;fill-rule:evenodd;stroke:#000000;stroke-width:0.72110969;stroke-linecap:butt;stroke-linejoin:miter;stroke-miterlimit:4;stroke-dasharray:none;stroke-opacity:1;marker-end:url(#Arrow2Mend-3-5)"
       d="m 101.44332,17.83673 -8.347902,7.01371"
       id="path4507-7-5"
       inkscape:connector-curvature="0"
       sodipodi:nodetypes="cc"
       inkscape:export-xdpi="200"
       inkscape:export-ydpi="200" />
    <path
       style="fill:#ffff00;fill-rule:evenodd;stroke:#000000;stroke-width:0.72110969;stroke-linecap:butt;stroke-linejoin:miter;stroke-miterlimit:4;stroke-dasharray:none;stroke-opacity:1;marker-end:url(#Arrow2Mend-3-9)"
       d="m 34.563645,16.753407 11.684837,8.180064"
       id="path4507-7-2"
       inkscape:connector-curvature="0"
       sodipodi:nodetypes="cc"
       inkscape:export-xdpi="200"
       inkscape:export-ydpi="200" />
    <path
       style="fill:#ffff00;fill-rule:evenodd;stroke:#000000;stroke-width:0.72110969;stroke-linecap:butt;stroke-linejoin:miter;stroke-miterlimit:4;stroke-dasharray:none;stroke-opacity:1;marker-end:url(#Arrow2Mend-3-5-6)"
       d="M 46.334296,3.9785329 54.649773,16.799452"
       id="path4507-7-5-7"
       inkscape:connector-curvature="0"
       sodipodi:nodetypes="cc"
       inkscape:export-xdpi="200"
       inkscape:export-ydpi="200" />
    <circle
       style="opacity:1;fill:#ffff00;stroke:#000000;stroke-width:0.72145891;stroke-linejoin:miter;stroke-miterlimit:4;stroke-dasharray:none"
       id="path53717"
       cx="164.64136"
       cy="26.253"
       r="9.6392708" />
    <path
       style="opacity:1;fill:#b3b3b3;stroke:#000000;stroke-width:0.42901376;stroke-linejoin:miter;stroke-miterlimit:4;stroke-dasharray:none"
       d="m 169.95002,18.803775 a 5.4464598,4.0131805 0 0 1 -5.44646,4.013181 5.4464598,4.0131805 0 0 1 -5.44646,-4.013181 5.4464598,4.0131805 0 0 1 5.44646,-4.01318 5.4464598,4.0131805 0 0 1 5.44646,4.01318 z"
       id="path53738"
       inkscape:connector-curvature="0" />
    <path
       style="opacity:1;fill:#b3b3b3;stroke:#000000;stroke-width:0.42901376;stroke-linejoin:miter;stroke-miterlimit:4;stroke-dasharray:none"
       d="m 169.77803,16.166543 a 5.4464598,4.0131806 0 0 1 -5.44646,4.013181 5.4464598,4.0131806 0 0 1 -5.44646,-4.013181 5.4464598,4.0131806 0 0 1 5.44646,-4.01318 5.4464598,4.0131806 0 0 1 5.44646,4.01318 z"
       id="path53738-0"
       inkscape:connector-curvature="0" />
    <path
       style="opacity:1;fill:#b3b3b3;stroke:#000000;stroke-width:0.42901376;stroke-linejoin:miter;stroke-miterlimit:4;stroke-dasharray:none"
       d="m 169.54871,13.52931 a 5.4464598,4.0131806 0 0 1 -5.44645,4.013181 5.4464598,4.0131806 0 0 1 -5.44646,-4.013181 5.4464598,4.0131806 0 0 1 5.44646,-4.0131796 5.4464598,4.0131806 0 0 1 5.44645,4.0131796 z"
       id="path53738-9"
       inkscape:connector-curvature="0" />
    <path
       style="opacity:1;fill:#4d4d4d;stroke:#000000;stroke-width:0.23694728;stroke-linejoin:miter;stroke-miterlimit:4;stroke-dasharray:none"
       d="m 166.89285,13.070661 a 2.790597,2.3892793 0 0 1 -2.79059,2.38928 2.790597,2.3892793 0 0 1 -2.7906,-2.38928 2.790597,2.3892793 0 0 1 2.7906,-2.389279 2.790597,2.3892793 0 0 1 2.79059,2.389279 z"
       id="path53738-9-3"
       inkscape:connector-curvature="0" />
    <path
       style="fill:none;fill-rule:evenodd;stroke:#000000;stroke-width:0.26458332px;stroke-linecap:butt;stroke-linejoin:miter;stroke-opacity:1"
       d="m 162.36624,22.647829 c 0,0 -2.40094,5.474656 -0.80181,7.349913 1.15758,1.357473 4.09664,1.541379 5.34539,0.267269 1.78162,-1.817801 -0.53454,-7.617181 -0.53454,-7.617181"
       id="path53777"
       inkscape:connector-curvature="0"
       sodipodi:nodetypes="cssc" />
    <path
       style="fill:none;fill-rule:evenodd;stroke:#000000;stroke-width:0.20265467px;stroke-linecap:butt;stroke-linejoin:miter;stroke-opacity:1"
       d="m 162.76465,22.724347 c 0,0 -1.84742,4.17408 -0.61695,5.603845 0.8907,1.034987 3.15219,1.175204 4.11303,0.203776 1.37088,-1.385959 -0.4113,-5.807619 -0.4113,-5.807619"
       id="path53777-6"
       inkscape:connector-curvature="0"
       sodipodi:nodetypes="cssc" />
  </g>
</svg>
